<mxfile host="app.diagrams.net" modified="2022-06-24T11:13:42.893Z" agent="5.0 (Windows NT 10.0; Win64; x64) AppleWebKit/537.36 (KHTML, like Gecko) Chrome/102.0.5005.124 Safari/537.36 Edg/102.0.1245.44" etag="haxE9J46oblWWOiRwZKg" version="20.0.3" type="gitlab">
  <diagram id="gg0o80Z7JGqU0v0baqv1" name="Page-1">
    <mxGraphModel dx="868" dy="482" grid="1" gridSize="10" guides="1" tooltips="1" connect="1" arrows="1" fold="1" page="1" pageScale="1" pageWidth="850" pageHeight="1100" math="0" shadow="0">
      <root>
        <mxCell id="0" />
        <mxCell id="1" parent="0" />
        <mxCell id="3aVII8PiMHHjTKHSDVMx-1" value="Actor" style="shape=umlActor;verticalLabelPosition=bottom;verticalAlign=top;html=1;outlineConnect=0;" parent="1" vertex="1">
          <mxGeometry x="160" y="130" width="30" height="60" as="geometry" />
        </mxCell>
        <mxCell id="3aVII8PiMHHjTKHSDVMx-2" value="Todo_Webapp (Web Application)" style="whiteSpace=wrap;html=1;aspect=fixed;" parent="1" vertex="1">
          <mxGeometry x="310" y="90" width="200" height="200" as="geometry" />
        </mxCell>
        <mxCell id="3aVII8PiMHHjTKHSDVMx-3" value="" style="endArrow=classic;html=1;rounded=0;" parent="1" edge="1">
          <mxGeometry width="50" height="50" relative="1" as="geometry">
            <mxPoint x="190" y="170" as="sourcePoint" />
            <mxPoint x="300" y="172" as="targetPoint" />
          </mxGeometry>
        </mxCell>
        <mxCell id="3aVII8PiMHHjTKHSDVMx-4" value="aacess to web app in order to manage items&lt;br&gt;" style="text;html=1;align=center;verticalAlign=middle;resizable=0;points=[];autosize=1;strokeColor=none;fillColor=none;" parent="1" vertex="1">
          <mxGeometry x="110" y="145" width="260" height="30" as="geometry" />
        </mxCell>
        <mxCell id="xuOSvKAoZm6IpTD2Fh7B-2" value="" style="endArrow=classic;html=1;rounded=0;entryX=-0.005;entryY=0.584;entryDx=0;entryDy=0;entryPerimeter=0;" edge="1" parent="1">
          <mxGeometry width="50" height="50" relative="1" as="geometry">
            <mxPoint x="510" y="210" as="sourcePoint" />
            <mxPoint x="629.075" y="208.03999999999996" as="targetPoint" />
          </mxGeometry>
        </mxCell>
        <mxCell id="xuOSvKAoZm6IpTD2Fh7B-3" value="Send API Request" style="text;html=1;align=center;verticalAlign=middle;resizable=0;points=[];autosize=1;strokeColor=none;fillColor=none;" vertex="1" parent="1">
          <mxGeometry x="510" y="177.5" width="120" height="30" as="geometry" />
        </mxCell>
        <mxCell id="xuOSvKAoZm6IpTD2Fh7B-5" value="Trello (External Application whichh manages Items)" style="ellipse;shape=cloud;whiteSpace=wrap;html=1;" vertex="1" parent="1">
          <mxGeometry x="630" y="140" width="200" height="140" as="geometry" />
        </mxCell>
      </root>
    </mxGraphModel>
  </diagram>
</mxfile>
